{
    "Activate": "Aktivieren",
    "Author": "Autor",
    "Cancel": "Abbrechen",
    "Character": "Charakter",
    "Configure": "Konfigurieren",
	"Close": "Schließen",
    "Degrees": "Grad",
    "Default": "Standard",
    "Delete": "Löschen",
    "Documentation": "Dokumentation",
    "Duplicate": "Duplizieren",
	"Error": "Fehler",
    "GridUnits": "Grid-Einheit",
    "Install": "Installieren",
    "Elevation": "Höhe",
    "Foundry Virtual Tabletop": "Foundry Virtual Tabletop",
    "File Path": "Dateipfad",
    "Height": "Höhe",
    "Hidden": "Versteckt",
    "Name": " Name",
    "No": "Nein",
    "Notes": "Notizen",
    "Preload": "Vorladen",
    "Token": "Spielfigur",
    "Path": "Pfad",
    "Packs": "Pakete",
    "Permissions": "Rechte",
    "Pixels": "Pixel",
    "Ratio": "Verhältnis",
    "Rotation": "Drehung",
    "Save Changes": "Änderungen speichern",
    "Scale": "Maßstab",
    "Sheet": "Bogen",
    "System": "System",
    "Type": "Typ",
    "Uninstall": "Deinstallieren",
    "Update": "Aktualisieren",
    "URL": "URL",
	"Warning": "Warnung",
    "Width": "Breite",
    "XCoord": "X-Koordinate",
    "YCoord": "Y-Koordinate",
    "Yes": "Ja",

    "ACTOR.Title": "Figuren-Verzeichnis",
    "ACTOR.Create": "Figur erstellen",
    "ACTOR.Search": "Figur suchen",

    "CHAT.Clear": "Nachrichten löschen",
    "CHAT.Export": "Nachrichten exportieren",
    "CHAT.FlushTitle": "Nachrichten löschen",
    "CHAT.FlushWarning": "<h3>Bist du sicher?</h3><p>Alle Nachrichten werden gelöscht.</p>",
    "CHAT.Title": "Nachrichten",
    "CHAT.To": "An",
    "CHAT.RollBlind": "Verdeckter SL-Wurf",
    "CHAT.RollDefault": "Standard Würfel-Modus",
    "CHAT.RollPublic": "Öffentlicher Wurf",
    "CHAT.RollPrivate": "Privater SL-Wurf",
    "CHAT.RollSelf": "Selbst-Wurf",
    "CHAT.RollTables": "Würfel-Tabellen",

    "COMBAT.Begin": "Kampf beginnen",
    "COMBAT.Create": "Begegnung erstellen",
    "COMBAT.Delete": "Begegnung löschen",
    "COMBAT.Encounter": "Begegnung",
    "COMBAT.EncounterPrevious": "Letzte Begegnung starten",
    "COMBAT.EncounterNext": "Nächste Begegnung starten",
    "COMBAT.End": "Kampf beenden",
    "COMBAT.InitiativeRoll": "Initiative würfeln",
    "COMBAT.InitiativeReset": "Initiative zurücksetzen",
    "COMBAT.None": "Keine aktiven Begegnungen",
    "COMBAT.NotStarted": "Nicht gestartet",
    "COMBAT.Resource": "Verfolgte Ressource",
    "COMBAT.ResourceHint": "Wähle ein Attribut, das für jeden Kämpfer verfolgt werden soll.",
    "COMBAT.Round": "Kampfrunde",
    "COMBAT.RoundPrev": "Letzte Runde",
    "COMBAT.RoundNext": "Nächste Runde",
    "COMBAT.RollNPC": "Würfel NSCs",
    "COMBAT.RollAll": "Würfel alle",
    "COMBAT.Settings": "Kampf-Einstellungen",
    "COMBAT.SettingsSave": "Speichere Kampf-Einstellungen",
    "COMBAT.SkipDefeated": "Besiegte überspringen?",
    "COMBAT.SkipDefeatedHint": "Automatisch besiegte Charaktere überspringen?",
    "COMBAT.ToggleVis": "Sichtbare anzeigen",
    "COMBAT.ToggleDead": "Besiegte markieren",
    "COMBAT.TurnEnd": "Runde beenden",
    "COMBAT.TurnNext": "Nächste Runde",
    "COMBAT.TurnPrev": "Vorherige Runde",

    "COMPENDIUM.Name": "Kompendium-Name",
    "COMPENDIUM.Create": "Kompendium erstellen",
    "COMPENDIUM.CreateHint": "Erstelle ein neues Kompendium-Paket in deiner aktuellen Welt.",
    "COMPENDIUM.Delete": "Kompendium löschen",
	"COMPENDIUM.Duplicate": "Kompendium duplizieren",
	"COMPENDIUM.DuplicateTitle": "Neuer Kompedium-Name",
	"COMPENDIUM.DuplicateHint": "Du kannst eine Kopie dieses Kompendiums in deiner Welt erstellen, um eine lokale Kopie zu haben, welche du gefahrlos bearbeiten kannst.",
    "COMPENDIUM.Type": "Entitätstyp",
    "COMPENDIUM.TypeHint": "Jedes Kompendium-Paket enthält einen speziellen Entitätstyp.",
    "COMPENDIUM.ToggleVisibility": "Sichtbarkeit umschalten",
    "COMPENDIUM.ToggleLocked": "Bearbeitungssperre umschalten",
    "COMPENDIUM.ToggleLockedWarning": "Du versuchst, ein Kompendium zur Bearbeitung freizuschalten, welches nicht zu dieser Welt gehört. Jede Änderung könnte verloren gehen, wenn das System oder Module aktualisiert werden. Es ist eventuell sinnvoller, das Kompendium in deine Welt zu kopieren. Möchtest du trotzdem fortfahren?",

    "CONTROLS.GroupBasic": "Basissteuerung",
    "CONTROLS.BasicSelect": "Tokens auswählen",
    "CONTROLS.TargetSelect": "Ziele auswählen",
    "CONTROLS.BasicMeasure": "Entfernung messen",
    "CONTROLS.GroupMeasure": "Messwerkzeuge",
    "CONTROLS.MeasureCircle": "Kreis-Schablone",
    "CONTROLS.MeasureCone": "Kegel-Schablone",
    "CONTROLS.MeasureRect": "Rechteck-Schablone",
    "CONTROLS.MeasureRay": "Strahl-Schablone",
    "CONTROLS.MeasureClear": "Schablonen entfernen",
    "CONTROLS.GroupTile": "Kachel-Steuerung",
    "CONTROLS.TileSelect": "Kacheln auswählen",
    "CONTROLS.TilePlace": "Kachel platzieren",
    "CONTROLS.GroupDrawing": "Zeichenwerkzeuge",
    "CONTROLS.DrawingSelect": "Zeichnungen auswählen",
    "CONTROLS.DrawingRect": "Rechteck zeichnen",
    "CONTROLS.DrawingEllipse": "Kreis zeichnen",
    "CONTROLS.DrawingPoly": "Polygon zeichnen",
    "CONTROLS.DrawingFree": "Freihand zeichnen",
    "CONTROLS.DrawingText": "Text zeichnen",
    "CONTROLS.DrawingClear": "Zeichnungen löschen",
    "CONTROLS.DrawingConfig": "Zeichnung anpassen",
    "CONTROLS.GroupWall": "Wandwerkzeug",
    "CONTROLS.WallDraw": "Wände zeichnen",
    "CONTROLS.WallInvisible": "Unsichbare Wände",
    "CONTROLS.WallTerrain": "Terrain-Wände",
    "CONTROLS.WallEthereal": "Ätherische Wände",
    "CONTROLS.WallDoors": "Türen zeichnen",
    "CONTROLS.WallSecret": "Geheimtüren",
	"CONTROLS.WallSelect": "Rechteckige Wandauswahl",
	"CONTROLS.WallSnap": "Erzwinge Ausrichtung am Raster",
    "CONTROLS.WallClone": "Wände klonen",
    "CONTROLS.WallClear": "Wände löschen",
    "CONTROLS.GroupLighting": "Beleuchtungswerkzeuge",
    "CONTROLS.LightDraw": "Lichtquelle platzieren",
    "CONTROLS.LightClear": "Lichter löschen",
    "CONTROLS.LightReset": "Kriegsnebel zurücksetzen",
	"CONTROLS.LightDay": "Übergang zu Tageslicht",
	"CONTROLS.LightNight": "Übergang zu Dunkelheit",
    "CONTROLS.FOWResetTitle": "Aufgedeckten Bereich wieder verstecken?",
    "CONTROLS.FOWResetDesc": "Diese Option setzt den Nebel des Krieges in dieser Szene für alle Spieler zurück.",
    "CONTROLS.GroupSound": "Umgebungsgeräusche",
    "CONTROLS.SoundDraw": "Umgebungsgeräusch platzieren",
    "CONTROLS.SoundClear": "Geräusche löschen",
    "CONTROLS.GroupNotes": "Gruppen-Notizen",
    "CONTROLS.NoteSelect": "Notizen auswählen",
    "CONTROLS.NoteToggle": "Notizen-Anzeige umschalten",
    "CONTROLS.NoteClear": "Notizen entfernen",
    "CONTROLS.HeaderObjects": "Platzierbare Objekte",
    "CONTROLS.HeaderCanvas": "Leinwand-Objekte",
    "CONTROLS.HeaderGame": "Spielsteuerung",
    "CONTROLS.HeaderToken": "Token-Steuerung",
    "CONTROLS.HeaderWalls": "Wände-Ebenen (SL)",
    "CONTROLS.GameMenu": "Hauptmenü umschalten",
    "CONTROLS.GameClose": "Offene Fenster schließen",
    "CONTROLS.GamePause": "Spiel pausieren/weiterlaufen lassen (SL)",
    "CONTROLS.CanvasCancel": "Anstehende Bewegung abbrechen",
    "CONTROLS.CanvasConfigure": "Leinwand-Objekt Konfigurieren (SL)",
    "CONTROLS.CanvasCopy": "Leinwand-Objekte kopieren (SL)",
    "CONTROLS.CanvasDelete": "Ausgewählte Elemente löschen (SL)",
    "CONTROLS.CanvasMeasure": "Entfernung mit Lineal messen",
    "CONTROLS.CanvasWaypoint": "Messpunkt setzen",
    "CONTROLS.CanvasMove": "Objekt bewegen",
    "CONTROLS.CanvasNoSnap": "Magnetische Platzierung ausschalten",
    "CONTROLS.CanvasPan": "Leinwand schwenken",
    "CONTROLS.CanvasPaste": "Leinwand-Elemente einfügen (SL)",
    "CONTROLS.CanvasReset": "Ansicht zurücksetzen",
    "CONTROLS.CanvasUndo": "Leinwand-Aktion zurücksetzen",
    "CONTROLS.CanvasZoom": "Leinwand vergrößern/verkleinern",
    "CONTROLS.LeftClick": "Linksklick",
    "CONTROLS.LeftClick2": "Doppelklick",
    "CONTROLS.LeftDrag": "mit linker Maustaste ziehen",
    "CONTROLS.RightDrag": "mit rechter Maustaste ziehen",
    "CONTROLS.MouseWheel": "Mausrad",
    "CONTROLS.DragDrop": "Drag and Drop",
    "CONTROLS.Instructions": "Diese Eingabemaske beschreibt typische Tastatur- und Mausbefehle, mit denen verschiedene Aspekte der Foundry Virtual Tabletop-Umgebung gesteuert werden.",
    "CONTROLS.RightClick": "Rechtsklick",
    "CONTROLS.Title": "Spielsteuerungsübersicht",
    "CONTROLS.TokenCycle": "Steuerbare Tokens durchschalten",
    "CONTROLS.TokenFace": "Blickrichtung",
    "CONTROLS.TokenHUD": "Token HUD",
    "CONTROLS.TokenHighlight": "Tokens markieren",
    "CONTROLS.TokenPlace": "Token platzieren",
    "CONTROLS.TokenPlaceHidden": "Versteckten Token platzieren (SL)",
    "CONTROLS.TokenKeyMove": "Keyboard-Bewegung",
    "CONTROLS.TokenDiagMove": "Diagonale Bewegung",
    "CONTROLS.TokenMoveMeasure": "Entlang des gemessenen Pfades bewegen",
    "CONTROLS.TokenRotateFast": "Token rotieren (schnell)",
    "CONTROLS.TokenRotateSlow": "Token rotieren (langsam)",
    "CONTROLS.TokenSet": "Token Steuerung anpassen",
    "CONTROLS.TokenSheet": "Charakterbogen anzeigen",
    "CONTROLS.TokenWhileMeasure": "während Entfernung gemessen wird",
    "CONTROLS.WallChain": "Ketten-Wandplatzierung",
    "CONTROLS.WallSelectChain": "Verkettete Segmente auswählen",

    "ENTITY.Actor": "Figur",
	"ENTITY.ChatMessage": "Chatnachricht",
	"ENTITY.Combat": "Kampf-Begegnung",
    "ENTITY.Item": "Gegenstand",
	"ENTITY.Folder": "Ordner",
	"ENTITY.JournalEntry": "Tagebucheintrag",
	"ENTITY.Macro": "Makrokommando",
	"ENTITY.Playlist": "Audio-Playlist",
    "ENTITY.Scene": "Szene",
    "ENTITY.RollTable": "Würfeltabelle",
    "ENTITY.User": "Nutzer",
    "ENTITY.CreateNew": "Neuen Eintrag erstellen",
    "ENTITY.TypeHint": "Wähle die Art von Entität aus, die du erstellen möchtest",

	"ERROR.LowResolution": "FoundryVTT benötigt eine minimale Auflösung von 1366 x 768 Pixel. Deine Anzeige ist momentan {width} mal {height} Pixel. Mit den momentanen Anzeigeeinstellungen könnte das Programm nicht richtig funktionieren.",
	"ERROR.NoWebGL": "Dein momentaner Browser unterstützt kein WebGL-Rendering, welches von FoundryVTT benötigt wird. Stelle sicher, dass du die Hardwarebeschleunigug und WebGL im Browser aktiviert hast.",
    "ERROR.BackgroundTextureSize": "Du benutzt einen Szenenhintergrund mit den Maßen {width} mal {height} Pixel. Einer oder beide Maße übersteigen die maximale Größe von {max} Pixeln, welche von deinem Gerät unterstützt wird.",

    "EULA.Acknowledge": "Einverständniserklärung",
    "EULA.Agree": "Zustimmen",
    "EULA.AgreeHint": "Ich stimme diesen Bedingungen zu",
	"EULA.Decline": "Ablehnen",

	"GAME.Paused": "Spiel pausiert",

    "INVITATIONS.Copied": "Einladungslink in die Zwischenablage kopiert",
    "INVITATIONS.Instructions": "Teile den untenstehenden Link mit Nutzern, die du zu deinem Spiel einladen möchtest. Der lokale Einladungslink ist für Nutzer gedacht, die sich in deinem Netzwerk befinden, während der Internetlink über das Internet auf den eingestellten Port verbindet.",
    "INVITATIONS.Internet": "Internet",
    "INVITATIONS.Local": "Lokales Netzwerk",
    "INVITATIONS.Title": "Einladungslinks",

    "ITEM.Create": "Gegenstand erstellen",
    "ITEM.Delete": "Gegenstand löschen",
    "ITEM.Search": "Gegenstände durchsuchen ",
    "ITEM.ViewArt": "Gegenstands-Artwork ansehen",

    "HUD.ToggleVis": "Sichtbarkeitszustand umschalten",
    "HUD.ToggleLock": "Sperrzustand umschalten",
    "HUD.ToFront": "In den Vordergrund bringen",
    "HUD.ToBack": "In den Hintergrund stellen",

    "JOURNAL.Search": "Tagebucheinträge durchsuchen",
    "JOURNAL.Create": "Eintrag erstellen",

	"LIGHT.DarknessThreshold": "Dunkelheitsschwellenwert",
	"LIGHT.DarknessThresholdHint": "Falls ein Dunkelheitsschwellenwert eingestellt ist, ist dieses Licht nur sichtbar, wenn die Dunkelheitsstufe der Szene den Schwellenwert überschreitet.",
	"LIGHT.LightColor": "Lichtfarbe",
	"LIGHT.LightOpacity": "Lichttransparenz",

    "MACRO.Create": "Makro erstellen",
    "MACRO.Delete": "Makro löschen",
    "MACRO.DeleteConfirm": "<p><strong>Bist du sicher?</strong> Dieses Makro wird dauerhaft gelöscht.</p>",
    "MACRO.Search": "Makros durchsuchen",
    "MACRO.AllowScripts": "Skript-Makros erlauben",
    "MACRO.AllowScriptsHint": "Erlaubt Nutzern JavaScript-Makros zu erstellen und zu nutzen.",

    "MENU.Reload": "Anwendung neu laden",
    "MENU.Logout": "Ausloggen",
    "MENU.Players": "Spieler konfigurieren",
    "MENU.Setup": "Zum Setup zurückkehren",

	"MODMANAGE.Bugs": "Fehler- oder Problemmeldungen",
	"MODMANAGE.Readme": "Moduldokumentation",
	"MODMANAGE.Title": "Modulverwaltung",
	"MODMANAGE.Instructions": "Benutz dieses Formular um einzustellen, welche Module in deiner momentanen Welt aktiv sind. Änderungen an bereits aktiven Modulen lösen automatisch einen Reload der Session aus.",
	"MODMANAGE.View": "Die folgenden Module sind momentan in dieser Welt aktiv.",
	"MODMANAGE.None": "In dieser Welt sind keine Module verfügbar. Du kannst die Liste betrachten, hast aber keine Berechtigungen um Änderungen daran vorzunehmen.",
	"MODMANAGE.Submit": "Moduleinstellungen speichern",

    "PLAYERS.Title": "Spieler",
    "PLAYERS.CharSelect": "Charakter auswählen",
    "PLAYERS.CharRelease": "Charakter freigeben",
    "PLAYERS.ConfigTitle": "Spieler Konfiguration",
    "PLAYERS.PlayerColor": "Spielerfarbe",
    "PLAYERS.PlayerAvatar": "Spieler-Avatar",
    "PLAYERS.PullToScene": "In Szene ziehen",
    "PLAYERS.SaveConfig": "Konfiguration speichern",
    "PLAYERS.ViewAvatar": "Spieler-Avatar ansehen",
	"PLAYERS.Kick": "Spieler kicken",
	"PLAYERS.Ban": "Spieler bannen",
	"PLAYERS.UnBan": "Spieler entbannen",

    "PLAYLIST.Create": "Playlist erstellen",
    "PLAYLIST.Delete": "Playlist löschen",
    "PLAYLIST.Edit": "Playlist bearbeiten",
    "PLAYLIST.GlobalVolume": "Globale Lautstärkeeinstellungen",
    "PLAYLIST.ModeDisabled": "Soundboard Only",
    "PLAYLIST.ModeSequential": "Sequentielle Wiedergabe",
    "PLAYLIST.ModeShuffle": "Zufallswiedergabe",
    "PLAYLIST.ModeSimultaneous": "Gleichzeitige Wiedergabe",
    "PLAYLIST.Play": "Playlist apspielen",
    "PLAYLIST.SoundAdd": "Geräusch hinzufügen",
    "PLAYLIST.SoundEdit": "Geräusch bearbeiten",
    "PLAYLIST.SoundDelete": "Geräusch löschen",
    "PLAYLIST.SoundLoop": "Geräusch loopen",
    "PLAYLIST.SoundPlay": "Geräusch abspielen",
    "PLAYLIST.SoundPreload": "Geräusch vorladen",
    "PLAYLIST.SoundVolume": "Geräusch-Lautstärke",
    "PLAYLIST.SoundStop": "Geräusch anhalten",
    "PLAYLIST.Stop": "Playlist anhalten",
    "PLAYLIST.VolPlaylist": "Playlists",
    "PLAYLIST.VolAmbient": "Umgebungsgeräusche",
    "PLAYLIST.VolInterface": "Interface",

    "SCENES.Access" : "Zugang",
    "SCENES.AccessHint" : "Stelle ein wer die Szene bearbeiten kann und ob sie in der Seitenleiste angezeigt wird.",
    "SCENES.Accessibility" : "Zugang",
    "SCENES.AccessibilityGM" : "Nur SL",
    "SCENES.AccessibilityAll" : "Alle Spieler",
    "SCENES.Activate": "Aktivieren",
    "SCENES.AmbienceAtmosphere" : "Erscheinung und Atmosphäre",
    "SCENES.Appearance": "Erscheinung",
    "SCENES.AppearanceHint": "Stelle das Hintergrundbild und die Dimensionen der primären Karte der Szene ein.",
    "SCENES.AudioPlaylist": "Audio Playlist",
    "SCENES.AudioPlaylistHint": "Eine Playlist, die automatisch beginnen sollte abzuspielen, sobald diese Szene aktiviert wird.",
    "SCENES.BackgroundColor" : "Hintergrundfarbe",
    "SCENES.BackgroundImage" : "Hintergrundbild",
	"SCENES.BackgroundScale": "Hintergrundbild-Maße",
    "SCENES.Configure": "Konfigurieren",
	"SCENES.Darkness": "Dunkelheitsstufe",
	"SCENES.DarknessHint": "Stelle ein Dunkelheits-Overlay ein, welches die Szene verschleiert, um Nacht oder dämmriges Licht zu simulieren.",
    "SCENES.FogExplore" : "Nebel-Erkundung",
    "SCENES.FogExploreHint" : "Verfolge Entdeckungsfortschritt in dieser Szene, die den Kriegsnebel freilegt.",
    "SCENES.GlobalIllum" : "Golbale Beleuchtung",
    "SCENES.GlobalIllumHint" : "Beleute alle Bereiche in dieser Szene, die ein kontrollierter Token in seinem sichtbaren Bereich hat.",
    "SCENES.GridColor" : "Gridfarbe",
    "SCENES.GridConfig" : "Grid",
    "SCENES.GridConfigHint" : "Stelle die Dimensionen des Grids ein, die genutzt werden, um Token-Bewegung in dieser Szene zu messen.",
    "SCENES.GridConfigTool": "Grid-Einstellungswerkzeug",   
    "SCENES.GridDist" : "Grid-Abstand",
    "SCENES.GridUnits" : "Grid-Einheit",
    "SCENES.GridOpacity" : "Grid-Transparenz",
    "SCENES.GridType" : "Grid-Typ",
	"SCENES.GridGridless": "Grid-los",
	"SCENES.GridSquare": "Quadrate",
	"SCENES.GridHexOddR": "Hexagonale Reihen - Ungerade",
    "SCENES.GridHexEvenR": "Hexagonale Reihen - Gerade",
    "SCENES.GridHexOddQ": "Hexagonale Spalten - Ungerade",
    "SCENES.GridHexEvenQ": "Hexagonale Spalten - Gerade",
    "SCENES.GridSize" : "Grid-Größe",
	"SCENES.GridPosition": "Grid-Versatz-Position",
    "SCENES.InitialView": "Initiale Sichtposition",
    "SCENES.InitialViewButton": "Aktuelle Sicht festhalten",
    "SCENES.InitialViewHint": "Lege eine standardmäßige Kameraposition fest, die angezeigt wird, wenn die Szene das erste mal angesehen wird.",
    "SCENES.Height" : "Höhe",
    "SCENES.LightHeader" : "Beleuchtung und Sicht",
    "SCENES.NavName" : "Navigationsname",
    "SCENES.NavNameHint" : "Ein alternativer Szenenname, der Spielern in der Navigationsleiste angezeigt wird.",
    "SCENES.Notes": "Szenen-Notizen",
    "SCENES.Pixels" : "pixel",
    "SCENES.Preload": "Szene vorladen",
    "SCENES.SceneName": "Szenenname",
    "SCENES.JournalNotes": "Tagebuch-Notizen",
    "SCENES.JournalNotesHint": "Ein verknüpfter Tagebucheintrag, der Notizen über diese Szene für den Spielleiter bereitstellt.",
    "SCENES.ShowNav" : "In Navigation anzeigen",
    "SCENES.ShiftHorz" : "Horizontal verschieben",
    "SCENES.ShiftVert" : "Vertikal verschieben",
    "SCENES.TokenVision" : "Token-Sicht",
    "SCENES.TokenVisionHint" : "Sichtbarkeit in dieser Szene basierend auf kontrollierten Tokens und deren Sicht einschränken..",
    "SCENES.ToggleNav": "In Navigation anzeigen/ausblenden",
    "SCENES.Units" : "Einheiten",
    "SCENES.Width" : "Breite",
    "SCENES.WeatherEffect" : "Wettereffekt",
    "SCENES.WeatherEffectHint" : "Stelle die Wettereffekte ein, die für die aktuelle Szene gelten.",

	"SETTINGS.Configure": "Einstellungen anpassen",
	"SETTINGS.Controls": "Steuerungsübersicht",
	"SETTINGS.Docs": "Dokumentation ansehen",
	"SETTINGS.Invite": "Einladungslinks",
	"SETTINGS.ManageModules": "Module verwalten",
	"SETTINGS.ViewModules": "Aktive Module anzeigen",
	"SETTINGS.Title": "Spieleinstellungen anpassen",
	"SETTINGS.Update": "Software aktualisieren",
	"SETTINGS.Logout": "Ausloggen",
	"SETTINGS.Players": "Spieler anpassen",
	"SETTINGS.Reset": "Auf Standardwerte zurücksetzen",
	"SETTINGS.Save": "Änderungen speichern",
	"SETTINGS.Setup": "Zu Setup zurückkehren",
	"SETTINGS.SettingsHeader": "Spieleinstellungen",
	"SETTINGS.DocsHeader": "Hilfe-Dokumentation",
	"SETTINGS.InviteHeader": "Spiel-Einladungslinks",
	"SETTINGS.Wiki": "Community Wiki-Seiten",
	"SETTINGS.LangN": "Spracheinstellung",
	"SETTINGS.LangL": "Ändere die Anzeigesprache für Foundry Virtual Tabletop.",
	"SETTINGS.CBubN": "Chat-Sprechblasen aktivieren",
	"SETTINGS.CBubL": "Stelle ein, ob Chat-Sprechblasen für In-Character- und Emote-Messages oberhalb der Tokens angezeigt werden.",
	"SETTINGS.CBubPN": "Zu sprechendem Token springen",
	"SETTINGS.CBubPL": "Konfiguriere, ob die Kamera automatisch zu einem sprechenden Token springen soll, wenn dessen Sprechblase angezeigt wird.",
	"SETTINGS.SoftSN": "Weiche Schatten aktivieren",
	"SETTINGS.SoftSL": "Aktiviere weiche Schatten für eine schönere dynamische Beleuchtung oder deaktiviere sie für eine verbesserte Leistung auf Systemen mit älterer Hardware.",
	"SETTINGS.TabCore": "Grundeinstellungen",
	"SETTINGS.TabModule": "Moduleinstellungen",
	"SETTINGS.TabSystem": "Systemeinstellungen",
	"SETTINGS.None": "Es gibt keine Einstellungen, welche du anpassen kannst.",

	"SETUP.CoreVersion": "Core Software Version",
	"SETUP.CoreVersionHint": "If an update to the core Foundry Virtual Tabletop software is available, you may apply it here. You are currently using version {coreVersion}.",
	"SETUP.SettingsHeader": "Software Configuration",
	"SETUP.UpdateHeader": "Software Update",
	"SETUP.Configuration": "Configuration",
	"SETUP.ConfigurationWarning": "The following attributes customize the behavior of the Foundry Virtual Tabletop server. Be cautious when making changes. You will need to restart the software for these changes to take effect.",
	"SETUP.Modules": "Add-On Module",
	"SETUP.Systems": "Spielsysteme",
	"SETUP.Title": "Einstellungen und Setup",
	"SETUP.Update": "Software aktualisieren",
	"SETUP.UpdateAll": "Alle aktualisieren",
	"SETUP.UpdateChannel": "Software Update Channel",
	"SETUP.UpdateChannelHint": "You may choose an update channel to control the types of updates you wish to receive for the core Foundry Virtual Tabletop software. If you do not have a specific reason to change this, it is recommended to consume the Release channel.",
	"SETUP.UpdateCheck": "Aktualisierung prüfen",
	"SETUP.UpdateCheckFor": "Auf Aktualisierung prüfen",
	"SETUP.UpdateAlpha": "Alpha (instabil)",
	"SETUP.UpdateBeta": "Beta (Veröffentlichungskanidat)",
	"SETUP.UpdateRelease": "Release (stabil)",
	"SETUP.UpdateKey": "Update Access Key",
	"SETUP.UpdateKeyHint": "Gib einen Update Access Key ein, um fortzufahren. Du kannst eine Installation erzwingen, selbst wenn es keine Aktualisierung ist. Benutze diese Option nur, wenn du weißt, was du tust.",
	"SETUP.UpdateWarning": "Um Foundry Virtual Tabletop zu aktualisieren musst du mit dem Internet verbunden sein und über eine gültige Softwarelizenz verfügen.",
	"SETUP.Uninstall": "Deinstallieren",
	"SETUP.WorldCreate": "Welt erstellen",
	"SETUP.WorldDelete": "Welt löschen",
	"SETUP.WorldEdit": "Welt editieren",
	"SETUP.WorldLaunch": "Welt starten",
	"SETUP.Worlds": "Spielwelten",
	"SETUP.RequireUpdate": "Aktualisierung erforderlich",
	"SETUP.RequireSystem": "Systemaktualisierung erforderlich",
	"SETUP.RequireDep": "Abhängigkeit fehlt",
	"SETUP.RequireCore": "Software-Aktualisierung erforderlich",

	"SETUP.CompatibilityUnknown": "Kompatibilität unbekannt",
	"SETUP.CompatibilityRisk": "Kompatibilitätsrisiko",
	"SETUP.ManifestURL": "Manifest URL",
	"SETUP.InstallHint": "Du kannst Pakete installieren, indem du die direkte JSON manifest URL angibst.",
	"SETUP.InstallModule": "Modul installieren",
	"SETUP.InstallSystem": "System installieren",
	"SETUP.InstallSuccess": "Installation erfolgreich",
	"SETUP.InstallFailure": "Installation fehlgeschlagen",
	"SETUP.UninstallSuccess": "Deinstallation erfolgreich",
	"SETUP.UninstallFailure": "Deinstallation fehlgeschlagen",
	"SETUP.UpdateSuccess": "Aktualisierung erfolgreich",
	"SETUP.UpdateFailure": "Aktualisierung fehlgeschlagen",
	"SETUP.PackageFilter": "Pakete filtern",
	"SETUP.PackageFilterHint": "Du kannst verfügbare Pakete nach ihren Namen oder Titeln filtern.",

	"SETUP.AdminAccess": "Foundry Virtual Tabletop &bull; Administratorzugang",
	"SETUP.AdminKeyLabel": "Administrator-Zugangsschlüssel",
	"SETUP.AdminKeyHint": "Du kannst einen speziellen Zugangsschlüssel festlegen, welcher benötigt wird, um auf diese Einstellungen zuzugreifen.",
	"SETUP.AdminLogout": "Admin Log Out",
	"SETUP.AWSLabel": "AWS Einstellungspfad",
	"SETUP.AWSHint": "You may provide an AWS configuration file for S3 integration. The path is absolute or relative to the Config subdirectory of user data.",
	"SETUP.PortLabel": "Port",
	"SETUP.PortHint": "You may choose which port Foundry Virtual Tabletop uses for TCP connection traffic and enable or disable Universal Plug and Play (UPnP).",
	"SETUP.UPNPLabel": "Enable UPnP?",
	"SETUP.DataPathLabel": "User Data Path",
	"SETUP.DataPathHint": "Configure the location where your user data including worlds, systems and modules are stored.",
	"SETUP.WorldLabel": "Default World",
	"SETUP.WorldHint": "You may choose one of your available worlds to automatically launch when the software is started.",
	"SETUP.SSLCertLabel": "SSL Certificate",
	"SETUP.SSLKeyLabel": "SSL Private Key",
	"SETUP.SSLHint": "You may run the server using secure socket layer (SSL) encryption by providing paths to certificate and key files. Paths are absolute or relative to the Config subdirectory in user data.",

    "SHEETS.EntitySheetHint": "Überschreiben, welche Bogen-Art du für diese spezielle Entität benutzen möchtest.",
    "SHEETS.TypeSheetHint": "Die Standard-Bogen-Art für diesen Entitätstyp festlegen (nur SL).",
    "SHEETS.Save": "Bogen-Konfiguration speichern",

    "SIDEBAR.CharArt": "Charakter Artwork anzeigen",
    "SIDEBAR.CollapseToggle": "Ein- oder Ausklappen",
    "SIDEBAR.Delete": "Löschen",
    "SIDEBAR.DeleteConfirm": "<h3>Bist du sicher?</h3><p>Diese Entität wird <strong>dauerhaft gelöscht</strong>.</p>",
    "SIDEBAR.Duplicate": "Duplizieren",
    "SIDEBAR.Export": "Daten exportieren",

    "FOLDER.Clear": "Ordner leeren",
    "FOLDER.Color": "Ordnerfarbe",
    "FOLDER.Create": "Ordner erstellen",
    "FOLDER.Collapse": "Alle Ordner einklappen",
    "FOLDER.Delete": "Alle löschen",
    "FOLDER.DeleteConfirm": "<h3>Bist du sicher?</h3><p>Dieser Ordner und seine Inhalte werden <strong>dauerhaft gelöscht</strong> und können nicht wieder hergestellt werden.</p>",
    "FOLDER.Edit": "Ordner bearbeiten",
    "FOLDER.Name": "Ordnername",
    "FOLDER.Remove": "Ordner entfernen",
    "FOLDER.RemoveConfirm": "<h3>Bist du sicher?</h3><p>Dieser Ordner wird gelöscht und seine Inhalte werden in einen Überordner verschoben.</p>",
    "FOLDER.Update": "Order aktualisieren",

	"PERMISSION.AllPlayers": "Alle Spieler",
	"PERMISSION.Configure": "Berechtigungen einstellen",
	"PERMISSION.ConfigureLabel": "Berechtigungseinstellungen öffnen",
	"PERMISSION.ConfigureHint": "Stelle ein, welche den einzelnen Rollen erlaubt sind.",
	"PERMISSION.Title": "Berechtigungseinstellungen",
	"PERMISSION.Instructions": "Stelle ein, welche Rolle welche Berechtigung hat. Beachte bitte, dass manche Aktionen für Spielleiter nicht deaktiviert werden können. Manche Änderungen werden erst nach einem Neustart aktiv.",
	"PERMISSION.Permission": "Berechtigung",
	"PERMISSION.Permissions": "Nutzerrollen-Berechtigungen",
	"PERMISSION.Reset": "Auf Standard zurücksetzen",
	"PERMISSION.Submit": "Einstellungen speichern",
	"PERMISSION.BroadcastAudio": "Allow Broadcasting Audio",
	"PERMISSION.BroadcastAudioHint": "Allow players with this role to broadcast audio when using A/V chat integration.",
	"PERMISSION.BroadcastVideo": "Allow Broadcasting Video",
	"PERMISSION.BroadcastVideoHint": "Allow players with this role to broadcast video when using A/V chat integration.",
	"PERMISSION.ActorCreate": "Create New Actors",
	"PERMISSION.ActorCreateHint": "Allow players with this role to create new Actors in the World.",
	"PERMISSION.DrawingCreate": "Use Drawing Tools",
	"PERMISSION.DrawingCreateHint": "Allow players with this role to create Drawings using the drawing tools.",
	"PERMISSION.ItemCreate": "Create New Items",
	"PERMISSION.ItemCreateHint": "Allow players with this role to create new Items in the World.",
	"PERMISSION.FilesBrowse": "Browse File Explorer",
	"PERMISSION.FilesBrowseHint": "Allow players with this role to browse through available files in the File Picker.",
	"PERMISSION.FilesUpload": "Upload New Files",
	"PERMISSION.FilesUploadHint": "Allow players with this role to upload content to the server using the File Picker.",
	"PERMISSION.JournalCreate": "Create Journal Entries",
	"PERMISSION.JournalCreateHint": "Allow players with this role to create new Journal Entries in the Journal sidebar.",
	"PERMISSION.MacroScript": "Use Script Macros",
	"PERMISSION.MacroScriptHint": "Allow players with this role to use JavaScript macros which access the API.",
	"PERMISSION.MessageWhisper": "Whisper Private Messages",
	"PERMISSION.MessageWhisperHint": "Allow players with this role whisper private messages that the Game Master cannot see.",
	"PERMISSION.SettingsModify": "Modify Configuration Settings",
	"PERMISSION.SettingsModifyHint": "Allow players with this role to modify game settings and enable or disable modules.",
	"PERMISSION.ShowCursor": "Display Mouse Cursor",
	"PERMISSION.ShowCursorHint": "Display the position of the player's mouse cursor which illustrates where the user is looking on the canvas.",
	"PERMISSION.TemplateCreate": "Create Measured Template",
	"PERMISSION.TemplateCreateHint": "Allow players with this role to create templates for area-of-effect measurement.",
	"PERMISSION.TokenCreate": "Create New Tokens",
	"PERMISSION.TokenCreateHint": "Allow players with this role to place Tokens for Actors they own on the game canvas.",
	"PERMISSION.TokenConfigure": "Configure Token Settings",
	"PERMISSION.TokenConfigureHint": "Allow players with this role to configure the settings for Tokens that they own.",
	"PERMISSION.WallDoors": "Open and Close Doors",
	"PERMISSION.WallDoorsHint": "Allow players with this role interact with doors defined on the Walls Layer.",

	"SIDEBAR.Import": "Daten importieren",
	"SIDEBAR.Permissions": "Berechtigung einstellen",
	"SIDEBAR.SceneActivate":  "Szene aktivieren",
	"SIDEBAR.SceneConfig": "Szene konfigurieren",
	"SIDEBAR.SceneCreate": "Szene erstellen",
	"SIDEBAR.SceneNav": "in Navigation anzeigen",
	"SIDEBAR.SceneNotes": "Szenen-Notizen",
	"SIDEBAR.SceneSearch": "Szenen durchsuchen",
	"SIDEBAR.SceneThumb": "Thumbnail erneuern",
	"SIDEBAR.TabChat": "Chatlog",
	"SIDEBAR.TabCombat": "Kampf-Tracker",
	"SIDEBAR.TabScenes": "Szenen",
	"SIDEBAR.TabActors": "Figuren",
	"SIDEBAR.TabItems": "Gegenstände",
	"SIDEBAR.TabJournal": "Tagebucheinträge",
	"SIDEBAR.TabPlaylists": "Audio-Playlists",
	"SIDEBAR.TabCompendium": "Kompendium-Pakete",
	"SIDEBAR.TabSettings": "Spieleinstellungen",
	"SIDEBAR.TabTables": "Würfeltabellen",
	"SIDEBAR.TokenArt": "Token-Bild anzeigen",
	"SIDEBAR.JumpPin": "Zu Pin springen",

    "TABLE.AnimateSetting": "Würfeltabellen animieren?",
    "TABLE.AnimateSettingHint": "Stelle ein, ob eine Roulette-Animation angezeigt wird, wenn eine Würfeltabelle genutzt wird.",
    "TABLE.Create": "Tabelle erstellen",
	"TABLE.Description": "Tabellenbeschreibung",
    "TABLE.DisplayRoll": "Wurf im Chat anzeigen?",
    "TABLE.Formula": "Würfeltabellenformel",
    "TABLE.Search": "Tabelle durchsuchen",
    "TABLE.SheetTitle": "Würfeltabellen einstellen",
    "TABLE.Normalize": "Ergebnisgewichtung normalisieren",
    "TABLE.Replacement": "Mit Ersatz würfeln?",
    "TABLE.Reset": "Zurücksetzen",
    "TABLE.ResultCreate": "Neues Ergebnis hinzufügen",
    "TABLE.ResultType": "Ergebnistyp",
    "TABLE.ResultDetails": "Ergebnisdetails",
    "TABLE.ResultDelete": "Ergebnis löschen",
    "TABLE.ResultWeight": "Gewicht",
    "TABLE.ResultRange": "Reichweite",
    "TABLE.Roll": "Wurf",
    "TABLE.ToggleDrawn": "Geworfen-Status umschalten",
    "TABLE.Update": "Aktualisieren",

    "TEMPLATE.ConeTypeSetting": "Schablonen-Vorlagen-Typ",
    "TEMPLATE.ConeTypeSettingHint": "Wähle, wie die Effektfläche für Kegel-Schablonen definiert sein soll.",
    "TEMPLATE.ConeTypeFlat": "Flach",
    "TEMPLATE.ConeTypeRound": "Rund",

    "TOKEN.Assign": "Token zuweisen",
	"TOKEN.BarAttributes": "Attributleisten",
    "TOKEN.BarValues": "Einzelne Werte",
    "TOKEN.CharActor": "Repräsentierte Figur",
    "TOKEN.CharDisposition": "Token-Ausrictung",
    "TOKEN.CharInstructions": "Stelle ein, welcher Figur dieser Token zugeordnet ist.",
    "TOKEN.CharLink": "Figur-Daten verbinden",
    "TOKEN.CharNameplate": "Token-Name",
    "TOKEN.CharShowNameplate": "Namen anzeigen",
    "TOKEN.ImageAlts": "Alternative Figur-Tokens",
    "TOKEN.ImageInstructions": "Stelle das Token-Bild und seine Anzeigegröße ein.",
    "TOKEN.ImagePath": "Token-Bildpfad",
    "TOKEN.MirrorX": "Horizontal spiegeln",
	"TOKEN.MirrorY": "Vertikal spiegeln",
    "TOKEN.PositionInstructions": "Stelle die Position, Ausrichtung und Höhe des Tokens ein.",
    "TOKEN.PositionLock": "Rotation sperren",
    "TOKEN.RandomImg": "Randomize Wildcard Images",
    "TOKEN.ResourceInstructions": "Stelle die Ressourcen-Leisten ein, die für den Token verfolgt werden.",
    "TOKEN.ResourceBar1A": "Leiste 1 Attribut",
    "TOKEN.ResourceBar1D": "Leiste 1 Daten",
    "TOKEN.ResourceBar2A": "Leiste 2 Attribut",
    "TOKEN.ResourceBar2D": "Leiste 2 Daten",
    "TOKEN.ResourceDisplay": "Leisten anzeigen",
    "TOKEN.Title": "Token Einstellungen",
    "TOKEN.TitlePrototype": "Prototyp-Token",
    "TOKEN.Update": "Token aktualisieren",
    "TOKEN.VisionInstructions": "Stelle die Sicht und Lichtabgabe dieses Tokens ein.",
    "TOKEN.VisionHas": "Hat Sicht",
    "TOKEN.VisionBrightDist": "Helle Sicht",
    "TOKEN.VisionBrightEmit": "Helles Licht abgeben",
    "TOKEN.VisionDimDist": "Schwache Sicht",
    "TOKEN.VisionDimEmit": "Schwaches Licht abgeben",
    "TOKEN.VisionLightAngle": "Abgabewinkel",
    "TOKEN.VisionSightAngle": "Sichtwinkel",
    "TOKEN.HOSTILE": "Feindlich",
    "TOKEN.NEUTRAL": "Neutral",
    "TOKEN.FRIENDLY": "Freundlich",

	"USER.RoleNone": "Keine",
	"USER.RolePlayer": "Spieler",
	"USER.RoleTrusted": "Vertrauter Spieler",
	"USER.RoleAssistant": "Hilfs-SL",
	"USER.RoleGamemaster": "Spielleiter",
	"USERS.AccessKey": "Zugriffsschlüssel",
	"USERS.ManageTitle": "Spieler verwalten",
	"USERS.Role": "Nutzerrolle",
	"USERS.UserName": "Nutzername",
	"USERS.Create": "Nutzer erstellen",
	"USERS.Delete": "Nutzer löschen",
	"USERS.Launch": "Spielrunde starten",
	
    "WALLS.Title": "Wand-Konfiguration",
    "WALLS.TitleMany": "Wand-Konfiguration [mehrere]",
    "WALLS.Instructions": "Passe an, wie dieses Wand-Segment Bewegung oder Sinne einschränkt.",
    "WALLS.Coordinates": "Wand-Koordinaten",
    "WALLS.Movement": "Bewegungsbeschränkung",
    "WALLS.Senses": "Wahrnhemungsbeschränkung",
    "WALLS.Direction": "Wand-Richtung",
    "WALLS.Door": "Tür?",
    "WALLS.DoorState": "Tür-Zustand",
    "WALLS.Submit": "Wand aktualisieren",

    "WORLD.DetailTab": "Welt-Details",
    "WORLD.DescTab": "Welt-Beschreibung",

    "WEBRTC.Title" : "Audio/Video Konfiguration",
	"WEBRTC.MenuLabel": "Audio/Video einstellen",
    "WEBRTC.MenuHint": "Configure settings specific to the integrated Audio/Video WebRTC component",
    "WEBRTC.UnknownDevice" : "<Unbekanntes Gerät>",
    "WEBRTC.VideoDevice" : "Video-Eingabegerät",
    "WEBRTC.VideoDeviceNotes" : "Wähle ggf. das gewünschte Videoaufnahmegerät aus, das du verwenden möchtest.",
    "WEBRTC.AudioDevice" : "Audio-Eingabegerät",
    "WEBRTC.AudioDeviceNotes" : "Wähle ggf. das gewünschte Audioaufnahmegerät aus, das du verwenden möchtest.",
    "WEBRTC.AudioOutput" : "Audio-Ausgabegerät",
    "WEBRTC.AudioOutputNotes" : "Wähle, welches Audio-Ausgabegerät du verwenden möchtest.",
    "WEBRTC.DisableVideoSource" : "Deaktiviere Übertragung der Kamera",
    "WEBRTC.DisableAudioSource" : "Deaktiviere Übertragung des Mikrofons",
    "WEBRTC.DisableAudioOutput" : "Deaktiviere Audio-Ausgabe",
    "WEBRTC.DefaultSource" : "Standardgerät",
    "WEBRTC.UnavailableDevice" : "Nicht verfügbares Gerät (werde Standard benutzen)",
    "WEBRTC.WebRTCServer" : "Wähle Signal-Sever",
    "WEBRTC.WebRTCServerURL" : "Signal-Sever URL",
    "WEBRTC.FVTTSignalingServer" : "Foundry VTT",
    "WEBRTC.CustomSignalingServer" : "Benutzerdefinierter Server",
    "WEBRTC.WebRTCServerUsername" : "Signal-Server Nutzername",
    "WEBRTC.WebRTCServerPassword" : "Signal-Server Passwort",
    "WEBRTC.WebRTCTurnServer" : "Relay-Server Konfiguration",
    "WEBRTC.TURNServerProvisioned" : "Vom Signal-Server bereitgestellt",
    "WEBRTC.CustomTURNServer" : "Benutzerdefinierter Relay-Server",
    "WEBRTC.WebRTCTURNURL" : "Relay-Server URL",
    "WEBRTC.WebRTCTurnUsername" : "Relay-Server Nutzername",
    "WEBRTC.WebRTCTurnPassword" : "Relay-Server Passwort",
    "WEBRTC.GeneralTab" : "Generell",
    "WEBRTC.DevicesTab" : "Geräte",
    "WEBRTC.ServerTab" : "Server",
    "WEBRTC.GeneralTabNotGM" : "Allgemeine Audio-/Videokonferenzeinstellungen können nur vom Spielleiter geändert werden.",
    "WEBRTC.AVMode" : "Audio-/Videokonferenz-Modus",
    "WEBRTC.AVModeNotes" : "Nur ein Spielleiter-Benutzer kann diese Einstellung ändern, was ein erneutes Laden von Foundry VTT erfordert.",
    "WEBRTC.WebrtcModeDisabled" : "Ausgeschaltet",
    "WEBRTC.WebrtcModeAudioOnly" : "Nur Audio",
    "WEBRTC.WebrtcModeVideoOnly" : "Nur Video",
    "WEBRTC.WebrtcModeAudioVideo" : "Audio/Video eingeschaltet",
    "WEBRTC.TooltipToggleVideo" : "Video umschalten",
    "WEBRTC.TooltipConfigure" : "Einstellungen anpassen",
    "WEBRTC.TooltipDock" : "Im Dock fixieren",
    "WEBRTC.TooltipPopout" : "Lösen",
    "WEBRTC.PTTKey": "Push-to-Talk/Stumm-Taste",
    "WEBRTC.PTTKeyNotes": "Weise eine Tastaturtaste zu, die im PTT-Modus die Stimmübertragung aktiviert, solange sie gehalten wird. Wenn du dich nicht im PTT-Modus befindest, schaltet die gleiche Taste stumm, wenn sie gedrückt wird.",
    "WEBRTC.VoiceMode": "Stimmübertragungsmodus",
    "WEBRTC.VoiceModeNotes": "Wähle, wie deine Stimme bei AV-Anrufen übertragen wird.",
    "WEBRTC.VoiceAlways": "Immer eingeschaltet",
    "WEBRTC.VoiceActivity": "Sprachaktivierung",
    "WEBRTC.VoicePTT": "Push-to-Talk",

    "WEBRTC.TooltipAllowUserVideo" : "Nutzer-Video zulassen",
    "WEBRTC.TooltipBlockUserVideo" : "Nutzer-Video blockieren",
    "WEBRTC.TooltipAllowUserAudio" : "Nutzer-Audio zulassen",
    "WEBRTC.TooltipBlockUserAudio" : "Nutzer-Audio blockieren",
    "WEBRTC.TooltipEnableMyVideo" : "Video einschalten",
    "WEBRTC.TooltipDisableMyVideo" : "Video ausschalten",
    "WEBRTC.TooltipEnableMyAudio" : "Audio einschalten",
    "WEBRTC.TooltipDisableMyAudio" : "Audio ausschalten",
    "WEBRTC.TooltipMutePeers" : "Audio anderer stummschalten",
    "WEBRTC.TooltipUnmutePeers" : "Stummschaltung anderer aufheben",

    "WEBRTC.TooltipHidePlayers" : "Spielerliste verstecken",
    "WEBRTC.TooltipChangeSize" : "Videogröße umschalten",
    "WEBRTC.CaptureWarningVideo" : "Keine Aufnahme von deinen Audiogeräten möglich; teile nur Video",
    "WEBRTC.CaptureWarningAudio" : "Keine Aufnahme von deinen Videogeräten möglich; teile nur Audio",
    "WEBRTC.CaptureErrorAudioVideo" : "Keine Aufnahme von deinen Audio- und Videogeräten möglich",
    "WEBRTC.CaptureErrorVideo" : "Keine Aufnahme von deinen Videogeräten möglich",
    "WEBRTC.CaptureErrorAudio" : "Keine Aufnahme von deinen Audio- und Videogeräten möglich",
    "WEBRTC.ConnectError" : "Fehlerhafte Verbindung zum Audio/Video-Signalisierungsserver",
    "WEBRTC.ConnectionLostWarning" : "Die Verbindung zum Audio-/Video-Signalisierungsserver wurde unterbrochen. Versuche, die Verbindung wiederherzustellen.",
    "WEBRTC.GenericError" : "WebRTC Fehler : ",
    "WEBRTC.NoSSLError": "Du kannst keine Audio/Video-Anrufe verwenden, wenn dein Foundry VTT-Server keine SSL-Zertifikate verwendet. Anweisungen dazu findest du in der Online-Dokumentation."
  }
